meas/table_setup/haptix_discovery_test.csv

#Digilent WaveForms Oscilloscope Acquisition
#Device Name: Discovery3
#Serial Number: SN:210415BCB78D
#Date Time: 2025-03-28 16:28:17.887.605.610
#Sample rate: 10000Hz
#Samples: 16384
#Trigger: Source: Channel 1 Type: Edge Condition: Rising Level: 50 mV Hyst.: Auto HoldOff: 0 s
#Channel 1: Range: 1 V/div Offset: 0 V Probe: 10 X Sample Mode: Average
#Channel 2: Range: 200 mV/div Offset: 0 V Probe: 10 X Sample Mode: Average

Time (s),Channel 1 (V),Channel 2 (V)
-0.8191273972602741,0.03404938981463987,0.01975503185556442
-0.8190273972602741,0.03404938981463987,0.02054684958813206
-0.818927397260274,0.0316765487096568,0.01896321412299606
-0.818827397260274,0.0316765487096568,0.01896321412299606
-0.818727397260274,0.03246749574465116,0.01975503185556442
-0.818627397260274,0.0316765487096568,0.01975503185556442
-0.818527397260274,0.03088560167466245,0.02054684958813278
-0.818427397260274,0.0316765487096568,0.01975503185556442
-0.818327397260274,0.03009465463966809,0.02054684958813278
-0.818227397260274,0.0316765487096568,0.0221304850532695
-0.8181273972602741,0.0316765487096568,0.02133866732070114
-0.8180273972602741,0.03246749574465044,0.01975503185556586
-0.817927397260274,0.03246749574465188,0.0205468495881335
-0.817827397260274,0.03325844277964551,0.02133866732070114
-0.817727397260274,0.03246749574465116,0.02054684958813278
-0.817627397260274,0.03088560167466245,0.02133866732070114
-0.817527397260274,0.03088560167466245,0.02133866732070114
-0.817427397260274,0.03088560167466245,0.01975503185556442
-0.817327397260274,0.0316765487096568,0.02133866732070114
-0.817227397260274,0.03246749574465116,0.02054684958813278
-0.8171273972602741,0.03325844277964551,0.02133866732070114
-0.8170273972602741,0.03246749574465188,0.0205468495881335
-0.816927397260274,0.03246749574465188,0.02054684958813278
-0.816827397260274,0.03325844277964551,0.02054684958813278
-0.816727397260274,0.0316765487096568,0.02054684958813278
-0.816627397260274,0.0316765487096568,0.02054684958813278
-0.816527397260274,0.0316765487096568,0.02054684958813278
-0.816427397260274,0.03246749574465116,0.01975503185556442
-0.816327397260274,0.0316765487096568,0.01896321412299606
-0.816227397260274,0.03325844277964551,0.02054684958813278
-0.8161273972602741,0.03246749574465116,0.02054684958813278
-0.8160273972602741,0.03246749574465116,0.02054684958813278
-0.815927397260274,0.03088560167466389,0.01896321412299606
-0.815827397260274,0.03246749574465116,0.01896321412299606
-0.815727397260274,0.03325844277964551,0.01896321412299606
-0.815627397260274,0.03325844277964551,0.01896321412299606
-0.815527397260274,0.03404938981463987,0.01975503185556442
-0.815427397260274,0.0316765487096568,0.01975503185556442
-0.815327397260274,0.03246749574465116,0.01975503185556442
-0.815227397260274,0.03246749574465116,0.01975503185556442
-0.8151273972602741,0.0316765487096568,0.02054684958813278
-0.8150273972602741,0.03088560167466317,0.01975503185556514
-0.814927397260274,0.03167654870965824,0.01896321412299678
-0.814827397260274,0.03325844277964551,0.01975503185556442
-0.814727397260274,0.03246749574465116,0.01896321412299606
-0.814627397260274,0.03246749574465116,0.01896321412299606
-0.814527397260274,0.03484033684963422,0.01896321412299606
-0.814427397260274,0.03088560167466245,0.0181713963904277
-0.814327397260274,0.03246749574465116,0.01975503185556442
-0.814227397260274,0.03088560167466245,0.01896321412299606
-0.8141273972602741,0.0316765487096568,0.01975503185556442
-0.8140273972602741,0.03325844277964408,0.01896321412299678
-0.813927397260274,0.03088560167466389,0.01975503185556442
-0.813827397260274,0.03246749574465116,0.01975503185556442
-0.813727397260274,0.03325844277964551,0.01975503185556442
-0.813627397260274,0.03009465463966809,0.01975503185556442
-0.813527397260274,0.03325844277964551,0.01975503185556442
-0.813427397260274,0.03246749574465116,0.01975503185556442
-0.813327397260274,0.03246749574465116,0.01896321412299606
-0.813227397260274,0.03088560167466245,0.01975503185556442
-0.8131273972602741,0.03325844277964551,0.02054684958813278
-0.8130273972602741,0.03088560167466245,0.01975503185556442
-0.812927397260274,0.03088560167466389,0.02054684958813278
-0.812827397260274,0.03246749574465116,0.02054684958813278
-0.812727397260274,0.03325844277964551,0.02054684958813278
-0.812627397260274,0.03404938981463987,0.02133866732070114
-0.812527397260274,0.03088560167466245,0.02133866732070114
-0.812427397260274,0.03009465463966809,0.01975503185556442
-0.812327397260274,0.0316765487096568,0.01975503185556442
-0.812227397260274,0.03246749574465116,0.02054684958813278
-0.8121273972602741,0.03246749574465116,0.02054684958813278
-0.8120273972602741,0.03325844277964551,0.02054684958813278
-0.8119273972602741,0.03246749574465188,0.01975503185556514
-0.811827397260274,0.03246749574465116,0.02054684958813278
-0.811727397260274,0.03246749574465116,0.01975503185556442
-0.811627397260274,0.03246749574465116,0.01975503185556442
-0.811527397260274,0.03325844277964551,0.02054684958813278
-0.811427397260274,0.03404938981463987,0.0221304850532695
-0.811327397260274,0.03325844277964551,0.02054684958813278
-0.811227397260274,0.03246749574465116,0.01975503185556442
-0.8111273972602741,0.03246749574465116,0.02133866732070114
-0.8110273972602741,0.03325844277964551,0.02133866732070114
-0.8109273972602741,0.03325844277964551,0.02213048505326878
-0.810827397260274,0.03246749574465188,0.02133866732070186
-0.810727397260274,0.03325844277964551,0.0221304850532695
-0.810627397260274,0.03325844277964551,0.0221304850532695
-0.810527397260274,0.03246749574465116,0.0221304850532695
-0.810427397260274,0.03325844277964551,0.0221304850532695
-0.810327397260274,0.0316765487096568,0.02133866732070114
-0.810227397260274,0.03088560167466245,0.02133866732070114
-0.8101273972602741,0.03246749574465116,0.01975503185556442
-0.8100273972602741,0.03009465463966809,0.01975503185556442
-0.8099273972602741,0.02930370760467446,0.01975503185556442
-0.809827397260274,0.03088560167466245,0.02133866732070114
-0.809727397260274,0.03088560167466245,0.02133866732070114
-0.809627397260274,0.0316765487096568,0.02054684958813278
-0.809527397260274,0.0316765487096568,0.02133866732070114
-0.809427397260274,0.03246749574465116,0.02133866732070114
-0.809327397260274,0.02930370760467374,0.01975503185556442
-0.809227397260274,0.03325844277964551,0.02133866732070114
-0.8091273972602741,0.0316765487096568,0.02133866732070114
-0.8090273972602741,0.03246749574465116,0.02133866732070114
-0.8089273972602741,0.03167654870965753,0.0205468495881335
-0.808827397260274,0.03325844277964263,0.01975503185556442
-0.808727397260274,0.03009465463966809,0.01975503185556442
-0.808627397260274,0.03088560167466245,0.02054684958813278
-0.808527397260274,0.0316765487096568,0.02054684958813278
-0.808427397260274,0.03088560167466245,0.02133866732070114
-0.808327397260274,0.03088560167466245,0.01975503185556442
-0.808227397260274,0.0316765487096568,0.02133866732070114
-0.808127397260274,0.03088560167466245,0.02133866732070114
-0.8080273972602741,0.03009465463966809,0.02054684958813278
-0.8079273972602741,0.03088560167466173,0.02054684958813278
-0.807827397260274,0.03246749574464972,0.02054684958813278
-0.807727397260274,0.03088560167466245,0.02054684958813278
-0.807627397260274,0.03088560167466245,0.01975503185556442
-0.807527397260274,0.0316765487096568,0.01975503185556442
-0.807427397260274,0.0316765487096568,0.01975503185556442
-0.807327397260274,0.03009465463966809,0.01975503185556442
-0.807227397260274,0.0316765487096568,0.01975503185556442
-0.807127397260274,0.03246749574465116,0.02054684958813278
-0.8070273972602741,0.0316765487096568,0.02054684958813278
-0.8069273972602741,0.03246749574465044,0.02054684958813278
-0.806827397260274,0.03088560167466389,0.01975503185556514
-0.806727397260274,0.03246749574465116,0.02054684958813278
-0.806627397260274,0.0316765487096568,0.02054684958813278
-0.806527397260274,0.03246749574465116,0.01975503185556442
-0.806427397260274,0.03246749574465116,0.02054684958813278
-0.806327397260274,0.03246749574465116,0.01896321412299606
-0.806227397260274,0.03325844277964551,0.02054684958813278
-0.806127397260274,0.03246749574465116,0.01975503185556442
-0.8060273972602741,0.0316765487096568,0.01975503185556442
-0.8059273972602741,0.03009465463966953,0.02054684958813206
-0.805827397260274,0.03325844277964408,0.01975503185556586
-0.805727397260274,0.0316765487096568,0.02133866732070114
-0.805627397260274,0.0316765487096568,0.02054684958813278
-0.805527397260274,0.02930370760467374,0.01975503185556442
-0.805427397260274,0.03246749574465116,0.02054684958813278
-0.805327397260274,0.03325844277964551,0.02054684958813278
-0.805227397260274,0.0316765487096568,0.02133866732070114
-0.805127397260274,0.03246749574465116,0.02133866732070114
-0.8050273972602741,0.03246749574465116,0.02133866732070114
-0.8049273972602741,0.03404938981463843,0.0205468495881335
-0.804827397260274,0.03167654870965824,0.02213048505326878
-0.804727397260274,0.03325844277964551,0.02133866732070114
-0.804627397260274,0.0316765487096568,0.02133866732070114
-0.804527397260274,0.03246749574465116,0.02133866732070114
-0.804427397260274,0.03325844277964551,0.02133866732070114
-0.804327397260274,0.03484033684963422,0.02054684958813278
-0.804227397260274,0.03246749574465116,0.02133866732070114
-0.804127397260274,0.03088560167466245,0.02054684958813278
-0.8040273972602741,0.02930370760467374,0.02133866732070114
-0.8039273972602741,0.03167654870965465,0.02213048505326878
-0.803827397260274,0.03325844277964479,0.0205468495881335
-0.803727397260274,0.03246749574465116,0.02133866732070114
-0.803627397260274,0.03404938981463987,0.02054684958813278
-0.803527397260274,0.03088560167466245,0.02133866732070114
-0.803427397260274,0.03246749574465116,0.02054684958813278
-0.803327397260274,0.03325844277964551,0.02133866732070114
-0.803227397260274,0.03246749574465116,0.02133866732070114
-0.803127397260274,0.0316765487096568,0.02133866732070114
-0.8030273972602741,0.03325844277964551,0.0221304850532695
-0.8029273972602741,0.02930370760467734,0.0221304850532695
-0.802827397260274,0.03088560167466245,0.02213048505326878
-0.802727397260274,0.03088560167466245,0.02133866732070114
-0.802627397260274,0.03088560167466245,0.0221304850532695
-0.802527397260274,0.03246749574465116,0.0221304850532695
-0.802427397260274,0.0316765487096568,0.02133866732070114
-0.802327397260274,0.03404938981463987,0.02133866732070114
-0.802227397260274,0.03404938981463987,0.02133866732070114
-0.802127397260274,0.03088560167466245,0.02133866732070114
-0.8020273972602741,0.03404938981463987,0.0221304850532695
-0.8019273972602741,0.03325844277964624,0.02133866732070186
-0.801827397260274,0.03167654870965824,0.02213048505326878
-0.801727397260274,0.03325844277964551,0.02133866732070114
-0.801627397260274,0.03325844277964551,0.0221304850532695
-0.801527397260274,0.03088560167466245,0.0221304850532695
-0.801427397260274,0.03088560167466245,0.02133866732070114
-0.801327397260274,0.03246749574465116,0.02133866732070114
-0.801227397260274,0.03246749574465116,0.02133866732070114
-0.801127397260274,0.0316765487096568,0.02133866732070114
-0.8010273972602741,0.03325844277964551,0.02133866732070114
-0.8009273972602741,0.03325844277964551,0.02133866732070114
-0.800827397260274,0.03088560167466317,0.0205468495881335
-0.800727397260274,0.0316765487096568,0.02133866732070114
-0.800627397260274,0.03484033684963422,0.02133866732070114
-0.800527397260274,0.03325844277964551,0.01975503185556442
-0.800427397260274,0.03246749574465116,0.02054684958813278
-0.800327397260274,0.03246749574465116,0.01975503185556442
-0.800227397260274,0.03246749574465116,0.01975503185556442
-0.800127397260274,0.03246749574465116,0.01896321412299606
-0.8000273972602741,0.03009465463966809,0.01975503185556442
-0.7999273972602741,0.0316765487096568,0.01975503185556442
-0.7998273972602741,0.0316765487096568,0.01975503185556442
-0.799727397260274,0.03325844277964551,0.01975503185556442
-0.799627397260274,0.03246749574465116,0.01975503185556442
-0.799527397260274,0.03404938981463987,0.01896321412299606
-0.799427397260274,0.03404938981463987,0.01975503185556442
-0.799327397260274,0.03088560167466245,0.01975503185556442
-0.799227397260274,0.03404938981463987,0.01896321412299606
-0.799127397260274,0.03246749574465116,0.01975503185556442
-0.7990273972602741,0.03246749574465116,0.01975503185556442
-0.7989273972602741,0.03325844277964551,0.02054684958813278
-0.7988273972602741,0.03404938981463915,0.01975503185556514
-0.798727397260274,0.0316765487096568,0.02054684958813278
-0.798627397260274,0.03246749574465116,0.02054684958813278
-0.798527397260274,0.03404938981463987,0.02133866732070114
-0.798427397260274,0.03325844277964551,0.02054684958813278
-0.798327397260274,0.0316765487096568,0.02133866732070114
-0.798227397260274,0.03246749574465116,0.02054684958813278
-0.798127397260274,0.0316765487096568,0.02054684958813278
-0.7980273972602741,0.0316765487096568,0.02133866732070114
-0.7979273972602741,0.03325844277964551,0.02133866732070114
-0.7978273972602741,0.03246749574465188,0.0205468495881335
-0.797727397260274,0.03246749574465116,0.02213048505326806
-0.797627397260274,0.03246749574465116,0.02054684958813278
-0.797527397260274,0.03484033684963422,0.02054684958813278
-0.797427397260274,0.03088560167466245,0.02054684958813278
-0.797327397260274,0.03088560167466245,0.02054684958813278
-0.797227397260274,0.03246749574465116,0.01975503185556442
-0.797127397260274,0.03246749574465116,0.01975503185556442
-0.7970273972602741,0.0316765487096568,0.01975503185556442
-0.7969273972602741,0.03325844277964551,0.01975503185556442
-0.7968273972602741,0.03246749574465188,0.01975503185556442
-0.796727397260274,0.03246749574465116,0.01975503185556442
-0.796627397260274,0.03246749574465116,0.01975503185556442
-0.796527397260274,0.03325844277964551,0.01975503185556442
-0.796427397260274,0.03246749574465116,0.01896321412299606
-0.796327397260274,0.03404938981463987,0.01975503185556442
-0.796227397260274,0.0316765487096568,0.01975503185556442
-0.796127397260274,0.03246749574465116,0.01975503185556442
-0.796027397260274,0.0316765487096568,0.02054684958813278
-0.7959273972602741,0.03404938981463987,0.02054684958813278
-0.7958273972602741,0.0324674957446526,0.02054684958813278
-0.795727397260274,0.03484033684963063,0.01975503185556442
-0.795627397260274,0.03088560167466245,0.01975503185556442
-0.795527397260274,0.03246749574465116,0.02054684958813278
-0.795427397260274,0.03484033684963422,0.01975503185556442
-0.795327397260274,0.03325844277964551,0.02054684958813278
-0.795227397260274,0.03246749574465116,0.01975503185556442
-0.795127397260274,0.03246749574465116,0.01975503185556442
-0.795027397260274,0.0316765487096568,0.02133866732070114
-0.7949273972602741,0.03009465463966809,0.01975503185556442
-0.7948273972602741,0.032467495744649,0.01975503185556442
-0.794727397260274,0.03246749574465188,0.0205468495881335
-0.794627397260274,0.03325844277964551,0.02133866732070114
-0.794527397260274,0.03246749574465116,0.01975503185556442
-0.794427397260274,0.03246749574465116,0.02133866732070114
-0.794327397260274,0.03246749574465116,0.02133866732070114
-0.794227397260274,0.03088560167466245,0.02133866732070114
-0.794127397260274,0.03246749574465116,0.02054684958813278
-0.794027397260274,0.03088560167466245,0.02054684958813278
-0.7939273972602741,0.0316765487096568,0.02054684958813278
-0.7938273972602741,0.03484033684963134,0.02054684958813278
-0.793727397260274,0.03404938981463843,0.01975503185556298
-0.793627397260274,0.03246749574465116,0.0181713963904277
-0.793527397260274,0.03246749574465116,0.01975503185556442
-0.793427397260274,0.03484033684963422,0.01975503185556442
-0.793327397260274,0.03246749574465116,0.01975503185556442
-0.793227397260274,0.0316765487096568,0.01896321412299606
-0.793127397260274,0.03246749574465116,0.01975503185556442
-0.793027397260274,0.0316765487096568,0.01975503185556442
-0.7929273972602741,0.0316765487096568,0.01975503185556442
-0.7928273972602741,0.03484033684963134,0.01896321412299678
-0.792727397260274,0.03246749574465044,0.01817139639042842
-0.792627397260274,0.0316765487096568,0.01896321412299606
-0.792527397260274,0.03009465463966809,0.0181713963904277
-0.792427397260274,0.03246749574465116,0.01896321412299606
-0.792327397260274,0.03325844277964551,0.01896321412299606
-0.792227397260274,0.03404938981463987,0.01975503185556442
-0.792127397260274,0.03404938981463987,0.01975503185556442
-0.792027397260274,0.03246749574465116,0.01975503185556442
-0.7919273972602741,0.0316765487096568,0.01896321412299606
-0.7918273972602741,0.03484033684963134,0.0197550318555637
-0.791727397260274,0.03325844277964479,0.01975503185556514
-0.791627397260274,0.03246749574465116,0.02054684958813278
-0.791527397260274,0.03484033684963422,0.02054684958813278
-0.791427397260274,0.0316765487096568,0.02054684958813278
-0.791327397260274,0.03563128388462858,0.01975503185556442
-0.791227397260274,0.03325844277964551,0.02054684958813278
-0.791127397260274,0.03246749574465116,0.01975503185556442
-0.791027397260274,0.03088560167466245,0.01896321412299606
-0.7909273972602741,0.03325844277964551,0.01896321412299606
-0.7908273972602741,0.03404938981463915,0.01896321412299606
-0.790727397260274,0.03563128388462642,0.02054684958813206
-0.790627397260274,0.03325844277964551,0.01975503185556442
-0.790527397260274,0.03088560167466245,0.01975503185556442
-0.790427397260274,0.03246749574465116,0.02054684958813278
-0.790327397260274,0.03325844277964551,0.02054684958813278
-0.790227397260274,0.03484033684963422,0.02054684958813278
-0.790127397260274,0.03246749574465116,0.01975503185556442
-0.790027397260274,0.03325844277964551,0.02054684958813278
-0.7899273972602741,0.03404938981463987,0.02054684958813278
-0.7898273972602741,0.0348403368496335,0.01975503185556514
-0.789727397260274,0.03325844277964695,0.01975503185556442
-0.789627397260274,0.03484033684963422,0.01975503185556442
-0.789527397260274,0.03325844277964551,0.02054684958813278
-0.789427397260274,0.03404938981463987,0.01975503185556442
-0.789327397260274,0.03246749574465116,0.01896321412299606
-0.789227397260274,0.03088560167466245,0.01975503185556442
-0.789127397260274,0.03246749574465116,0.01975503185556442
-0.789027397260274,0.03484033684963422,0.01975503185556442
-0.7889273972602741,0.03484033684963422,0.02054684958813278
-0.7888273972602741,0.03246749574465332,0.02054684958813278
-0.788727397260274,0.03325844277964624,0.02054684958813278
-0.788627397260274,0.03404938981463987,0.02054684958813278
-0.788527397260274,0.03246749574465116,0.01975503185556442
-0.788427397260274,0.0316765487096568,0.01975503185556442
-0.788327397260274,0.0316765487096568,0.01975503185556442
-0.788227397260274,0.03404938981463987,0.02054684958813278
-0.788127397260274,0.03246749574465116,0.02054684958813278
-0.788027397260274,0.03404938981463987,0.02054684958813278
-0.7879273972602741,0.0316765487096568,0.02054684958813278
-0.7878273972602741,0.03484033684963422,0.02054684958813278
-0.787727397260274,0.03246749574465188,0.0205468495881335
-0.787627397260274,0.03325844277964551,0.02133866732070114
-0.787527397260274,0.03484033684963422,0.02054684958813278
-0.787427397260274,0.03404938981463987,0.01975503185556442
-0.787327397260274,0.03404938981463987,0.01896321412299606
-0.787227397260274,0.03325844277964551,0.01975503185556442
-0.787127397260274,0.03088560167466245,0.01975503185556442
-0.787027397260274,0.03325844277964551,0.02054684958813278
-0.7869273972602741,0.0316765487096568,0.02054684958813278
-0.7868273972602741,0.03246749574465116,0.02054684958813278
-0.7867273972602741,0.03484033684963207,0.01975503185556514
-0.786627397260274,0.03404938981463987,0.01975503185556442
-0.786527397260274,0.03563128388462858,0.02054684958813278
-0.786427397260274,0.03246749574465116,0.02054684958813278
-0.786327397260274,0.03246749574465116,0.01975503185556442
-0.786227397260274,0.0316765487096568,0.02054684958813278
-0.786127397260274,0.03563128388462858,0.02054684958813278
